EESchema Schematic File Version 4
LIBS:stm32f373cxt6-cache
EELAYER 26 0
EELAYER END
$Descr A4 11693 8268
encoding utf-8
Sheet 1 1
Title "STM32F373CxT6 dev board"
Date "2018-12-22"
Rev "0.1"
Comp "www.stupid-projects.com"
Comment1 "dimtass"
Comment2 ""
Comment3 ""
Comment4 ""
$EndDescr
$Comp
L dimtass:STM32F373xx U102
U 1 1 5C1DDC91
P 3900 3050
F 0 "U102" H 3900 4465 50  0000 C CNN
F 1 "STM32F373xx" H 3900 4374 50  0000 C CNN
F 2 "Housings_QFP:LQFP-48_7x7mm_Pitch0.5mm" H 3800 3000 50  0001 C CNN
F 3 "" H 3800 3000 50  0001 C CNN
	1    3900 3050
	1    0    0    -1  
$EndComp
$Comp
L SI3415A-TP:Crystal Y101
U 1 1 5C1DE193
P 1900 4750
F 0 "Y101" H 1900 5000 50  0000 C CNN
F 1 "32.768" H 1900 4900 50  0000 C CNN
F 2 "Crystals:Crystal_C38-LF_d3.0mm_l8.0mm_Vertical" H 1900 4750 50  0001 C CNN
F 3 "~" H 1900 4750 50  0001 C CNN
	1    1900 4750
	1    0    0    -1  
$EndComp
$Comp
L Device:C_Small C103
U 1 1 5C1E379F
P 1700 4950
F 0 "C103" H 1792 4996 50  0000 L CNN
F 1 "100p" H 1792 4905 50  0000 L CNN
F 2 "Capacitors_SMD:C_0805_HandSoldering" H 1700 4950 50  0001 C CNN
F 3 "~" H 1700 4950 50  0001 C CNN
	1    1700 4950
	1    0    0    -1  
$EndComp
$Comp
L Device:C_Small C104
U 1 1 5C1E3853
P 2100 4950
F 0 "C104" H 2192 4996 50  0000 L CNN
F 1 "100p" H 2192 4905 50  0000 L CNN
F 2 "Capacitors_SMD:C_0805_HandSoldering" H 2100 4950 50  0001 C CNN
F 3 "~" H 2100 4950 50  0001 C CNN
	1    2100 4950
	1    0    0    -1  
$EndComp
$Comp
L Device:C_Small C111
U 1 1 5C1E387D
P 6350 2750
F 0 "C111" H 6442 2796 50  0000 L CNN
F 1 "12p" H 6442 2705 50  0000 L CNN
F 2 "Capacitors_SMD:C_0805_HandSoldering" H 6350 2750 50  0001 C CNN
F 3 "~" H 6350 2750 50  0001 C CNN
	1    6350 2750
	1    0    0    -1  
$EndComp
$Comp
L SI3415A-TP:Crystal Y102
U 1 1 5C1E433D
P 6150 2600
F 0 "Y102" H 6150 2850 50  0000 C CNN
F 1 "8M" H 6150 2750 50  0000 C CNN
F 2 "Crystals:Crystal_HC49-4H_Vertical" H 6150 2600 50  0001 C CNN
F 3 "~" H 6150 2600 50  0001 C CNN
	1    6150 2600
	1    0    0    -1  
$EndComp
$Comp
L Device:C_Small C109
U 1 1 5C1E440B
P 5950 2750
F 0 "C109" H 6042 2796 50  0000 L CNN
F 1 "12p" H 6042 2705 50  0000 L CNN
F 2 "Capacitors_SMD:C_0805_HandSoldering" H 5950 2750 50  0001 C CNN
F 3 "~" H 5950 2750 50  0001 C CNN
	1    5950 2750
	1    0    0    -1  
$EndComp
Wire Wire Line
	2100 4850 2100 4750
Wire Wire Line
	2100 4500 2200 4500
Wire Wire Line
	2200 4400 1700 4400
Wire Wire Line
	1700 4400 1700 4750
Wire Wire Line
	1750 4750 1700 4750
Connection ~ 1700 4750
Wire Wire Line
	1700 4750 1700 4850
Wire Wire Line
	2050 4750 2100 4750
Connection ~ 2100 4750
Wire Wire Line
	2100 4750 2100 4500
$Comp
L power:GND #PWR0103
U 1 1 5C1E4763
P 1700 5150
F 0 "#PWR0103" H 1700 4900 50  0001 C CNN
F 1 "GND" H 1705 4977 50  0000 C CNN
F 2 "" H 1700 5150 50  0001 C CNN
F 3 "" H 1700 5150 50  0001 C CNN
	1    1700 5150
	1    0    0    -1  
$EndComp
$Comp
L power:GND #PWR0105
U 1 1 5C1E4783
P 2100 5150
F 0 "#PWR0105" H 2100 4900 50  0001 C CNN
F 1 "GND" H 2105 4977 50  0000 C CNN
F 2 "" H 2100 5150 50  0001 C CNN
F 3 "" H 2100 5150 50  0001 C CNN
	1    2100 5150
	1    0    0    -1  
$EndComp
Wire Wire Line
	2100 5150 2100 5050
Wire Wire Line
	1700 5150 1700 5050
$Comp
L power:GND #PWR0114
U 1 1 5C1E485F
P 5950 2900
F 0 "#PWR0114" H 5950 2650 50  0001 C CNN
F 1 "GND" H 5955 2727 50  0000 C CNN
F 2 "" H 5950 2900 50  0001 C CNN
F 3 "" H 5950 2900 50  0001 C CNN
	1    5950 2900
	1    0    0    -1  
$EndComp
$Comp
L power:GND #PWR0116
U 1 1 5C1E4878
P 6350 2900
F 0 "#PWR0116" H 6350 2650 50  0001 C CNN
F 1 "GND" H 6355 2727 50  0000 C CNN
F 2 "" H 6350 2900 50  0001 C CNN
F 3 "" H 6350 2900 50  0001 C CNN
	1    6350 2900
	1    0    0    -1  
$EndComp
Wire Wire Line
	5500 2550 5950 2550
Wire Wire Line
	5950 2550 5950 2600
Wire Wire Line
	6000 2600 5950 2600
Connection ~ 5950 2600
Wire Wire Line
	5950 2600 5950 2650
Wire Wire Line
	5500 2450 6350 2450
Wire Wire Line
	6350 2450 6350 2600
Wire Wire Line
	6300 2600 6350 2600
Connection ~ 6350 2600
Wire Wire Line
	6350 2600 6350 2650
Wire Wire Line
	5950 2900 5950 2850
Wire Wire Line
	6350 2900 6350 2850
$Comp
L power:GND #PWR0110
U 1 1 5C1E4E35
P 5600 4600
F 0 "#PWR0110" H 5600 4350 50  0001 C CNN
F 1 "GND" H 5605 4427 50  0000 C CNN
F 2 "" H 5600 4600 50  0001 C CNN
F 3 "" H 5600 4600 50  0001 C CNN
	1    5600 4600
	1    0    0    -1  
$EndComp
Connection ~ 5600 4500
Wire Wire Line
	5600 4500 5600 4600
$Comp
L power:+3.3V #PWR0111
U 1 1 5C1E51DB
P 5700 2900
F 0 "#PWR0111" H 5700 2750 50  0001 C CNN
F 1 "+3.3V" H 5715 3073 50  0000 C CNN
F 2 "" H 5700 2900 50  0001 C CNN
F 3 "" H 5700 2900 50  0001 C CNN
	1    5700 2900
	1    0    0    -1  
$EndComp
Wire Wire Line
	5700 2950 5700 2900
Wire Wire Line
	5500 2950 5700 2950
Wire Wire Line
	5500 3500 5700 3500
$Comp
L Device:R R108
U 1 1 5C1E6C84
P 5900 2250
F 0 "R108" V 5800 2150 50  0000 C CNN
F 1 "100K" V 5900 2250 50  0000 C CNN
F 2 "Resistors_SMD:R_0805_HandSoldering" V 5830 2250 50  0001 C CNN
F 3 "~" H 5900 2250 50  0001 C CNN
	1    5900 2250
	0    1    1    0   
$EndComp
Wire Wire Line
	5500 2250 5750 2250
Text Label 6400 2250 2    50   ~ 0
BOOT0
Wire Wire Line
	6050 2250 6400 2250
Text Label 5950 2100 2    50   ~ 0
NRST
Wire Wire Line
	5500 2100 5950 2100
Wire Wire Line
	5700 2950 5700 3500
Connection ~ 5700 2950
Wire Wire Line
	5500 3600 5600 3600
Connection ~ 5600 3600
Wire Wire Line
	5600 3600 5600 3050
Wire Wire Line
	5500 3050 5600 3050
Wire Wire Line
	5500 4200 5700 4200
Wire Wire Line
	5700 4200 5700 4100
Connection ~ 5700 3500
Wire Wire Line
	5500 4100 5700 4100
Connection ~ 5700 4100
Wire Wire Line
	5700 4100 5700 3500
Text Label 5900 3950 2    50   ~ 0
VBAT
Wire Wire Line
	5900 3950 5500 3950
Text Label 5800 1500 2    50   ~ 0
D8
Text Label 5800 1600 2    50   ~ 0
E8
Text Label 5800 1700 2    50   ~ 0
E9
Text Label 5800 1800 2    50   ~ 0
F7
Text Label 5800 1900 2    50   ~ 0
F6
Wire Wire Line
	5800 1500 5500 1500
Wire Wire Line
	5800 1600 5500 1600
Wire Wire Line
	5800 1700 5500 1700
Wire Wire Line
	5800 1800 5500 1800
Wire Wire Line
	5800 1900 5500 1900
Text Label 1950 1500 0    50   ~ 0
A0
Text Label 1950 1600 0    50   ~ 0
A1
Text Label 1950 1700 0    50   ~ 0
A2
Text Label 1950 1800 0    50   ~ 0
A3
Text Label 1950 1900 0    50   ~ 0
A4
Text Label 1950 2000 0    50   ~ 0
A5
Text Label 1950 2100 0    50   ~ 0
A6
Text Label 1950 2200 0    50   ~ 0
A8
Text Label 1950 2300 0    50   ~ 0
A9
Text Label 1950 2400 0    50   ~ 0
A10
Text Label 1950 2500 0    50   ~ 0
A11
Text Label 1950 2600 0    50   ~ 0
A12
Text Label 1950 2700 0    50   ~ 0
A13
Text Label 1950 2800 0    50   ~ 0
A14
Text Label 1950 2900 0    50   ~ 0
A15
Text Label 1950 3050 0    50   ~ 0
B0
Text Label 1950 3150 0    50   ~ 0
B1
Text Label 1950 3250 0    50   ~ 0
B2
Text Label 1950 3350 0    50   ~ 0
B3
Text Label 1950 3450 0    50   ~ 0
B4
Text Label 1950 3550 0    50   ~ 0
B5
Text Label 1950 3650 0    50   ~ 0
B6
Text Label 1950 3750 0    50   ~ 0
B7
Text Label 1950 3850 0    50   ~ 0
B8
Text Label 1950 3950 0    50   ~ 0
B9
Text Label 1950 4100 0    50   ~ 0
B14
Text Label 1950 4200 0    50   ~ 0
B15
Text Label 1950 4300 0    50   ~ 0
C13
Wire Wire Line
	2200 1500 1950 1500
Wire Wire Line
	2200 1600 1950 1600
Wire Wire Line
	2200 1700 1950 1700
Wire Wire Line
	2200 1800 1950 1800
Wire Wire Line
	2200 1900 1950 1900
Wire Wire Line
	2200 2000 1950 2000
Wire Wire Line
	2200 2100 1950 2100
Wire Wire Line
	2200 2200 1950 2200
Wire Wire Line
	2200 2300 1950 2300
Wire Wire Line
	2200 2400 1950 2400
Wire Wire Line
	2200 2900 1950 2900
Wire Wire Line
	2200 3050 1950 3050
Wire Wire Line
	2200 3150 1950 3150
Wire Wire Line
	2200 3350 1950 3350
Wire Wire Line
	2200 3450 1950 3450
Wire Wire Line
	2200 3550 1950 3550
Wire Wire Line
	2200 3650 1950 3650
Wire Wire Line
	2200 3750 1950 3750
Wire Wire Line
	2200 3850 1950 3850
Wire Wire Line
	2200 3950 1950 3950
Wire Wire Line
	2200 4100 1950 4100
Wire Wire Line
	2200 4200 1950 4200
Wire Wire Line
	2200 4300 1950 4300
$Comp
L Device:C_Small C108
U 1 1 5C20D710
P 5900 4350
F 0 "C108" H 5992 4396 50  0000 L CNN
F 1 "100n" H 5992 4305 50  0000 L CNN
F 2 "Capacitors_SMD:C_0805_HandSoldering" H 5900 4350 50  0001 C CNN
F 3 "~" H 5900 4350 50  0001 C CNN
	1    5900 4350
	1    0    0    -1  
$EndComp
$Comp
L Device:C_Small C110
U 1 1 5C20D7AD
P 6300 4350
F 0 "C110" H 6392 4396 50  0000 L CNN
F 1 "100n" H 6392 4305 50  0000 L CNN
F 2 "Capacitors_SMD:C_0805_HandSoldering" H 6300 4350 50  0001 C CNN
F 3 "~" H 6300 4350 50  0001 C CNN
	1    6300 4350
	1    0    0    -1  
$EndComp
Connection ~ 5700 4200
Wire Wire Line
	5600 4500 5900 4500
Wire Wire Line
	5900 4500 6300 4500
Connection ~ 5900 4500
Wire Wire Line
	5700 4200 5900 4200
Wire Wire Line
	5900 4450 5900 4500
Wire Wire Line
	5900 4250 5900 4200
Connection ~ 5900 4200
Wire Wire Line
	5900 4200 6300 4200
Wire Wire Line
	6300 4200 6300 4250
Wire Wire Line
	6300 4450 6300 4500
$Comp
L Device:R R101
U 1 1 5C21F708
P 1250 2500
F 0 "R101" V 1150 2400 50  0000 C CNN
F 1 "22R" V 1250 2500 50  0000 C CNN
F 2 "Resistors_SMD:R_0805_HandSoldering" V 1180 2500 50  0001 C CNN
F 3 "~" H 1250 2500 50  0001 C CNN
	1    1250 2500
	0    1    1    0   
$EndComp
$Comp
L Device:R R102
U 1 1 5C21F78E
P 1250 2600
F 0 "R102" V 1300 2500 50  0000 C CNN
F 1 "22R" V 1250 2600 50  0000 C CNN
F 2 "Resistors_SMD:R_0805_HandSoldering" V 1180 2600 50  0001 C CNN
F 3 "~" H 1250 2600 50  0001 C CNN
	1    1250 2600
	0    1    1    0   
$EndComp
$Comp
L Device:R R103
U 1 1 5C21FD2C
P 1500 2200
F 0 "R103" H 1350 2250 50  0000 C CNN
F 1 "22R" H 1350 2150 50  0000 C CNN
F 2 "Resistors_SMD:R_0805_HandSoldering" V 1430 2200 50  0001 C CNN
F 3 "~" H 1500 2200 50  0001 C CNN
	1    1500 2200
	1    0    0    -1  
$EndComp
$Comp
L power:+3.3V #PWR0102
U 1 1 5C21FE18
P 1500 1950
F 0 "#PWR0102" H 1500 1800 50  0001 C CNN
F 1 "+3.3V" H 1515 2123 50  0000 C CNN
F 2 "" H 1500 1950 50  0001 C CNN
F 3 "" H 1500 1950 50  0001 C CNN
	1    1500 1950
	1    0    0    -1  
$EndComp
Wire Wire Line
	1500 1950 1500 2050
Text Label 850  2500 0    50   ~ 0
USBDM
Text Label 850  2600 0    50   ~ 0
USBDP
Wire Wire Line
	850  2500 1100 2500
Wire Wire Line
	850  2600 1100 2600
$Comp
L Connector:Conn_01x04_Male J103
U 1 1 5C2329BA
P 8850 2000
F 0 "J103" H 8956 2278 50  0000 C CNN
F 1 "SWIO" H 8956 2187 50  0000 C CNN
F 2 "Pin_Headers:Pin_Header_Straight_1x04_Pitch2.54mm" H 8850 2000 50  0001 C CNN
F 3 "~" H 8850 2000 50  0001 C CNN
	1    8850 2000
	1    0    0    -1  
$EndComp
$Comp
L power:+3.3V #PWR0122
U 1 1 5C235277
P 9100 1850
F 0 "#PWR0122" H 9100 1700 50  0001 C CNN
F 1 "+3.3V" H 9115 2023 50  0000 C CNN
F 2 "" H 9100 1850 50  0001 C CNN
F 3 "" H 9100 1850 50  0001 C CNN
	1    9100 1850
	1    0    0    -1  
$EndComp
$Comp
L power:GND #PWR0123
U 1 1 5C2352A0
P 9100 2250
F 0 "#PWR0123" H 9100 2000 50  0001 C CNN
F 1 "GND" H 9105 2077 50  0000 C CNN
F 2 "" H 9100 2250 50  0001 C CNN
F 3 "" H 9100 2250 50  0001 C CNN
	1    9100 2250
	1    0    0    -1  
$EndComp
Text Label 1650 2800 0    50   ~ 0
SWCLK
Text Label 1650 2700 0    50   ~ 0
SWDIO
Wire Wire Line
	1650 2700 2200 2700
Wire Wire Line
	1650 2800 2200 2800
Text Label 9350 2000 2    50   ~ 0
SWDIO
Text Label 9350 2100 2    50   ~ 0
SWCLK
Wire Wire Line
	9050 1900 9100 1900
Wire Wire Line
	9100 1900 9100 1850
Wire Wire Line
	9050 2200 9100 2200
Wire Wire Line
	9100 2200 9100 2250
Wire Wire Line
	9050 2000 9350 2000
Wire Wire Line
	9050 2100 9350 2100
$Comp
L power:+3.3V #PWR0124
U 1 1 5C24A249
P 9900 1850
F 0 "#PWR0124" H 9900 1700 50  0001 C CNN
F 1 "+3.3V" H 9915 2023 50  0000 C CNN
F 2 "" H 9900 1850 50  0001 C CNN
F 3 "" H 9900 1850 50  0001 C CNN
	1    9900 1850
	1    0    0    -1  
$EndComp
$Comp
L power:+3.3V #PWR0129
U 1 1 5C24A274
P 10500 1850
F 0 "#PWR0129" H 10500 1700 50  0001 C CNN
F 1 "+3.3V" H 10515 2023 50  0000 C CNN
F 2 "" H 10500 1850 50  0001 C CNN
F 3 "" H 10500 1850 50  0001 C CNN
	1    10500 1850
	1    0    0    -1  
$EndComp
$Comp
L power:GND #PWR0125
U 1 1 5C24A29F
P 9900 2250
F 0 "#PWR0125" H 9900 2000 50  0001 C CNN
F 1 "GND" H 9905 2077 50  0000 C CNN
F 2 "" H 9900 2250 50  0001 C CNN
F 3 "" H 9900 2250 50  0001 C CNN
	1    9900 2250
	1    0    0    -1  
$EndComp
$Comp
L power:GND #PWR0130
U 1 1 5C24A2CA
P 10500 2250
F 0 "#PWR0130" H 10500 2000 50  0001 C CNN
F 1 "GND" H 10505 2077 50  0000 C CNN
F 2 "" H 10500 2250 50  0001 C CNN
F 3 "" H 10500 2250 50  0001 C CNN
	1    10500 2250
	1    0    0    -1  
$EndComp
Text Label 9650 2050 0    50   ~ 0
BOOT0
Text Label 1050 3250 0    50   ~ 0
BOOT1
Text Label 10750 2050 2    50   ~ 0
BOOT1
Wire Wire Line
	9950 1950 9900 1950
Wire Wire Line
	9900 1950 9900 1850
Wire Wire Line
	9950 2050 9650 2050
Wire Wire Line
	9950 2150 9900 2150
Wire Wire Line
	9900 2150 9900 2250
Wire Wire Line
	10450 1950 10500 1950
Wire Wire Line
	10500 1950 10500 1850
Wire Wire Line
	10450 2050 10750 2050
Wire Wire Line
	10450 2150 10500 2150
Wire Wire Line
	10500 2150 10500 2250
$Comp
L Connector:Conn_01x20_Male J102
U 1 1 5C25EEBA
P 8450 4000
F 0 "J102" H 8556 5078 50  0000 C CNN
F 1 "pinheader_1" H 8556 4987 50  0000 C CNN
F 2 "Pin_Headers:Pin_Header_Straight_1x20_Pitch2.54mm" H 8450 4000 50  0001 C CNN
F 3 "~" H 8450 4000 50  0001 C CNN
	1    8450 4000
	1    0    0    -1  
$EndComp
$Comp
L Connector:Conn_01x20_Male J104
U 1 1 5C25F042
P 9600 4000
F 0 "J104" H 9706 5078 50  0000 C CNN
F 1 "pinheader_2" H 9706 4987 50  0000 C CNN
F 2 "Pin_Headers:Pin_Header_Straight_1x20_Pitch2.54mm" H 9600 4000 50  0001 C CNN
F 3 "~" H 9600 4000 50  0001 C CNN
	1    9600 4000
	1    0    0    -1  
$EndComp
$Comp
L Regulator_Linear:LM1117-3.3 U101
U 1 1 5C26F29A
P 1950 6400
F 0 "U101" H 1950 6642 50  0000 C CNN
F 1 "AMS1117-3.3" H 1950 6551 50  0000 C CNN
F 2 "TO_SOT_Packages_SMD:SOT-223" H 1950 6400 50  0001 C CNN
F 3 "http://www.ti.com/lit/ds/symlink/lm1117.pdf" H 1950 6400 50  0001 C CNN
	1    1950 6400
	1    0    0    -1  
$EndComp
$Comp
L Device:C_Small C106
U 1 1 5C26F494
P 2900 6600
F 0 "C106" H 2992 6646 50  0000 L CNN
F 1 "100n" H 2992 6555 50  0000 L CNN
F 2 "Capacitors_SMD:C_0805_HandSoldering" H 2900 6600 50  0001 C CNN
F 3 "~" H 2900 6600 50  0001 C CNN
	1    2900 6600
	1    0    0    -1  
$EndComp
$Comp
L Device:C_Small C105
U 1 1 5C26F5A6
P 2550 6600
F 0 "C105" H 2642 6646 50  0000 L CNN
F 1 "10u" H 2642 6555 50  0000 L CNN
F 2 "Capacitors_SMD:C_0805_HandSoldering" H 2550 6600 50  0001 C CNN
F 3 "~" H 2550 6600 50  0001 C CNN
	1    2550 6600
	1    0    0    -1  
$EndComp
$Comp
L Device:C_Small C102
U 1 1 5C26F5EA
P 1350 6600
F 0 "C102" H 1442 6646 50  0000 L CNN
F 1 "10u" H 1442 6555 50  0000 L CNN
F 2 "Capacitors_SMD:C_0805_HandSoldering" H 1350 6600 50  0001 C CNN
F 3 "~" H 1350 6600 50  0001 C CNN
	1    1350 6600
	1    0    0    -1  
$EndComp
$Comp
L Device:C_Small C101
U 1 1 5C26F656
P 900 6600
F 0 "C101" H 992 6646 50  0000 L CNN
F 1 "100n" H 992 6555 50  0000 L CNN
F 2 "Capacitors_SMD:C_0805_HandSoldering" H 900 6600 50  0001 C CNN
F 3 "~" H 900 6600 50  0001 C CNN
	1    900  6600
	1    0    0    -1  
$EndComp
$Comp
L power:VBUS #PWR0101
U 1 1 5C26FCA4
P 900 6200
F 0 "#PWR0101" H 900 6050 50  0001 C CNN
F 1 "VBUS" H 915 6373 50  0000 C CNN
F 2 "" H 900 6200 50  0001 C CNN
F 3 "" H 900 6200 50  0001 C CNN
	1    900  6200
	1    0    0    -1  
$EndComp
$Comp
L power:GND #PWR0104
U 1 1 5C26FD2E
P 1950 6900
F 0 "#PWR0104" H 1950 6650 50  0001 C CNN
F 1 "GND" H 1955 6727 50  0000 C CNN
F 2 "" H 1950 6900 50  0001 C CNN
F 3 "" H 1950 6900 50  0001 C CNN
	1    1950 6900
	1    0    0    -1  
$EndComp
$Comp
L power:+3.3V #PWR0106
U 1 1 5C26FE08
P 2900 6250
F 0 "#PWR0106" H 2900 6100 50  0001 C CNN
F 1 "+3.3V" H 2915 6423 50  0000 C CNN
F 2 "" H 2900 6250 50  0001 C CNN
F 3 "" H 2900 6250 50  0001 C CNN
	1    2900 6250
	1    0    0    -1  
$EndComp
Wire Wire Line
	1950 6900 1950 6800
Wire Wire Line
	1950 6800 1350 6800
Connection ~ 1950 6800
Wire Wire Line
	1950 6800 1950 6700
Wire Wire Line
	1950 6800 2550 6800
Wire Wire Line
	900  6800 900  6700
Wire Wire Line
	1350 6700 1350 6800
Connection ~ 1350 6800
Wire Wire Line
	1350 6800 900  6800
Wire Wire Line
	2550 6700 2550 6800
Connection ~ 2550 6800
Wire Wire Line
	2550 6800 2900 6800
Wire Wire Line
	2900 6700 2900 6800
Wire Wire Line
	2900 6500 2900 6400
Wire Wire Line
	2250 6400 2550 6400
Connection ~ 2900 6400
Wire Wire Line
	2900 6400 2900 6250
Wire Wire Line
	2550 6500 2550 6400
Connection ~ 2550 6400
Wire Wire Line
	2550 6400 2900 6400
Wire Wire Line
	1650 6400 1350 6400
Wire Wire Line
	900  6400 900  6200
Wire Wire Line
	900  6500 900  6400
Connection ~ 900  6400
Wire Wire Line
	1350 6500 1350 6400
Connection ~ 1350 6400
Wire Wire Line
	1350 6400 900  6400
$Comp
L Device:LED D101
U 1 1 5C2A89FE
P 4050 6550
F 0 "D101" V 4088 6433 50  0000 R CNN
F 1 "LED" V 3997 6433 50  0000 R CNN
F 2 "LEDs:LED_0805_HandSoldering" H 4050 6550 50  0001 C CNN
F 3 "~" H 4050 6550 50  0001 C CNN
	1    4050 6550
	0    -1   -1   0   
$EndComp
$Comp
L Device:LED D102
U 1 1 5C2A8AFF
P 4500 6550
F 0 "D102" V 4538 6433 50  0000 R CNN
F 1 "LED" V 4447 6433 50  0000 R CNN
F 2 "LEDs:LED_0805_HandSoldering" H 4500 6550 50  0001 C CNN
F 3 "~" H 4500 6550 50  0001 C CNN
	1    4500 6550
	0    -1   -1   0   
$EndComp
$Comp
L power:GND #PWR0108
U 1 1 5C2A8B55
P 4050 7200
F 0 "#PWR0108" H 4050 6950 50  0001 C CNN
F 1 "GND" H 4055 7027 50  0000 C CNN
F 2 "" H 4050 7200 50  0001 C CNN
F 3 "" H 4050 7200 50  0001 C CNN
	1    4050 7200
	1    0    0    -1  
$EndComp
$Comp
L Device:R R105
U 1 1 5C2A9028
P 4050 6950
F 0 "R105" H 3900 7000 50  0000 C CNN
F 1 "510R" H 3900 6900 50  0000 C CNN
F 2 "Resistors_SMD:R_0805_HandSoldering" V 3980 6950 50  0001 C CNN
F 3 "~" H 4050 6950 50  0001 C CNN
	1    4050 6950
	1    0    0    -1  
$EndComp
$Comp
L Device:R R106
U 1 1 5C2A92BF
P 4500 6950
F 0 "R106" H 4350 7000 50  0000 C CNN
F 1 "510R" H 4350 6900 50  0000 C CNN
F 2 "Resistors_SMD:R_0805_HandSoldering" V 4430 6950 50  0001 C CNN
F 3 "~" H 4500 6950 50  0001 C CNN
	1    4500 6950
	1    0    0    -1  
$EndComp
$Comp
L power:+3.3V #PWR0107
U 1 1 5C2A9317
P 4050 6300
F 0 "#PWR0107" H 4050 6150 50  0001 C CNN
F 1 "+3.3V" H 4065 6473 50  0000 C CNN
F 2 "" H 4050 6300 50  0001 C CNN
F 3 "" H 4050 6300 50  0001 C CNN
	1    4050 6300
	1    0    0    -1  
$EndComp
$Comp
L power:+3.3V #PWR0109
U 1 1 5C2A9358
P 4500 6300
F 0 "#PWR0109" H 4500 6150 50  0001 C CNN
F 1 "+3.3V" H 4515 6473 50  0000 C CNN
F 2 "" H 4500 6300 50  0001 C CNN
F 3 "" H 4500 6300 50  0001 C CNN
	1    4500 6300
	1    0    0    -1  
$EndComp
Wire Wire Line
	4050 6400 4050 6300
Wire Wire Line
	4500 6400 4500 6300
Wire Wire Line
	4050 6800 4050 6700
Wire Wire Line
	4500 6800 4500 6700
Wire Wire Line
	4050 7200 4050 7100
Text Label 4700 7250 2    50   ~ 0
C13
Wire Wire Line
	4700 7250 4500 7250
Wire Wire Line
	4500 7250 4500 7100
$Comp
L Device:R R107
U 1 1 5C2C4DE3
P 5800 6550
F 0 "R107" H 5650 6600 50  0000 C CNN
F 1 "12K" H 5650 6500 50  0000 C CNN
F 2 "Resistors_SMD:R_0805_HandSoldering" V 5730 6550 50  0001 C CNN
F 3 "~" H 5800 6550 50  0001 C CNN
	1    5800 6550
	1    0    0    -1  
$EndComp
$Comp
L Device:C_Small C107
U 1 1 5C2C4EB2
P 5800 7000
F 0 "C107" H 5892 7046 50  0000 L CNN
F 1 "100n" H 5892 6955 50  0000 L CNN
F 2 "Capacitors_SMD:C_0805_HandSoldering" H 5800 7000 50  0001 C CNN
F 3 "~" H 5800 7000 50  0001 C CNN
	1    5800 7000
	1    0    0    -1  
$EndComp
$Comp
L power:GND #PWR0113
U 1 1 5C2C4F9C
P 5800 7300
F 0 "#PWR0113" H 5800 7050 50  0001 C CNN
F 1 "GND" H 5805 7127 50  0000 C CNN
F 2 "" H 5800 7300 50  0001 C CNN
F 3 "" H 5800 7300 50  0001 C CNN
	1    5800 7300
	1    0    0    -1  
$EndComp
$Comp
L Switch:SW_Push SW101
U 1 1 5C2C503F
P 6200 7000
F 0 "SW101" V 6154 7148 50  0000 L CNN
F 1 "SW_Push" V 6245 7148 50  0000 L CNN
F 2 "mod_switch:smd_push" H 6200 7200 50  0001 C CNN
F 3 "" H 6200 7200 50  0001 C CNN
	1    6200 7000
	0    1    1    0   
$EndComp
$Comp
L power:+3.3V #PWR0112
U 1 1 5C2C51E6
P 5800 6300
F 0 "#PWR0112" H 5800 6150 50  0001 C CNN
F 1 "+3.3V" H 5815 6473 50  0000 C CNN
F 2 "" H 5800 6300 50  0001 C CNN
F 3 "" H 5800 6300 50  0001 C CNN
	1    5800 6300
	1    0    0    -1  
$EndComp
$Comp
L power:GND #PWR0115
U 1 1 5C2C522D
P 6200 7300
F 0 "#PWR0115" H 6200 7050 50  0001 C CNN
F 1 "GND" H 6205 7127 50  0000 C CNN
F 2 "" H 6200 7300 50  0001 C CNN
F 3 "" H 6200 7300 50  0001 C CNN
	1    6200 7300
	1    0    0    -1  
$EndComp
Wire Wire Line
	6200 7300 6200 7200
Wire Wire Line
	5800 7300 5800 7100
Wire Wire Line
	5800 6900 5800 6800
Wire Wire Line
	6200 6800 5800 6800
Connection ~ 5800 6800
Wire Wire Line
	5800 6800 5800 6700
Wire Wire Line
	5800 6400 5800 6300
$Comp
L Connector:Conn_01x05_Male J101
U 1 1 5C2DE09F
P 7950 2050
F 0 "J101" H 8056 2428 50  0000 C CNN
F 1 "USB" H 8056 2337 50  0000 C CNN
F 2 "mod_conn_pc:conn_usb_B_micro_smd-3" H 7950 2050 50  0001 C CNN
F 3 "~" H 7950 2050 50  0001 C CNN
	1    7950 2050
	1    0    0    -1  
$EndComp
$Comp
L power:VBUS #PWR0117
U 1 1 5C2DE30D
P 8300 1800
F 0 "#PWR0117" H 8300 1650 50  0001 C CNN
F 1 "VBUS" H 8315 1973 50  0000 C CNN
F 2 "" H 8300 1800 50  0001 C CNN
F 3 "" H 8300 1800 50  0001 C CNN
	1    8300 1800
	1    0    0    -1  
$EndComp
$Comp
L power:GND #PWR0118
U 1 1 5C2DE4DA
P 8300 2300
F 0 "#PWR0118" H 8300 2050 50  0001 C CNN
F 1 "GND" H 8305 2127 50  0000 C CNN
F 2 "" H 8300 2300 50  0001 C CNN
F 3 "" H 8300 2300 50  0001 C CNN
	1    8300 2300
	1    0    0    -1  
$EndComp
Text Label 8450 1950 2    50   ~ 0
USBDM
Text Label 8450 2050 2    50   ~ 0
USBDP
Wire Wire Line
	8150 2250 8300 2250
Wire Wire Line
	8300 2250 8300 2300
Wire Wire Line
	8150 2050 8450 2050
Wire Wire Line
	8150 1950 8450 1950
Wire Wire Line
	8150 1850 8300 1850
Wire Wire Line
	8300 1850 8300 1800
Wire Wire Line
	8150 2150 8300 2150
Wire Wire Line
	8300 2150 8300 2250
Connection ~ 8300 2250
Wire Wire Line
	1400 2500 2200 2500
Wire Wire Line
	1400 2600 1500 2600
Wire Wire Line
	1500 2350 1500 2600
Connection ~ 1500 2600
Wire Wire Line
	1500 2600 2200 2600
Text Label 9000 3100 2    50   ~ 0
VBAT
Text Label 9000 3300 2    50   ~ 0
A0
Text Label 9000 3400 2    50   ~ 0
A1
Text Label 9000 3500 2    50   ~ 0
A2
Text Label 9000 3600 2    50   ~ 0
A3
Text Label 9000 3700 2    50   ~ 0
A4
Text Label 9000 3800 2    50   ~ 0
A5
Text Label 9000 3900 2    50   ~ 0
A6
Text Label 9000 4000 2    50   ~ 0
B0
Text Label 9000 4100 2    50   ~ 0
B1
Text Label 9000 4200 2    50   ~ 0
B2
Text Label 10250 4000 2    50   ~ 0
B3
Text Label 10250 3900 2    50   ~ 0
B4
Text Label 10250 3800 2    50   ~ 0
B5
Text Label 10250 3700 2    50   ~ 0
B6
Text Label 10250 3600 2    50   ~ 0
B7
Text Label 10250 3500 2    50   ~ 0
B8
Text Label 10250 3400 2    50   ~ 0
B9
Text Label 9000 3200 2    50   ~ 0
C13
Text Label 2100 4400 2    50   ~ 0
C14
Text Label 2100 4500 2    50   ~ 0
C15
Text Label 9000 4300 2    50   ~ 0
E8
Text Label 9000 4400 2    50   ~ 0
E9
Text Label 9000 4500 2    50   ~ 0
B14
Text Label 9000 4600 2    50   ~ 0
B15
$Comp
L power:GND #PWR0127
U 1 1 5C35062D
P 10250 3200
F 0 "#PWR0127" H 10250 2950 50  0001 C CNN
F 1 "GND" V 10255 3072 50  0000 R CNN
F 2 "" H 10250 3200 50  0001 C CNN
F 3 "" H 10250 3200 50  0001 C CNN
	1    10250 3200
	0    -1   -1   0   
$EndComp
$Comp
L power:+3.3V #PWR0126
U 1 1 5C3506CE
P 10250 3100
F 0 "#PWR0126" H 10250 2950 50  0001 C CNN
F 1 "+3.3V" V 10265 3228 50  0000 L CNN
F 2 "" H 10250 3100 50  0001 C CNN
F 3 "" H 10250 3100 50  0001 C CNN
	1    10250 3100
	0    1    1    0   
$EndComp
$Comp
L power:VBUS #PWR0128
U 1 1 5C3507AB
P 10250 3300
F 0 "#PWR0128" H 10250 3150 50  0001 C CNN
F 1 "VBUS" V 10265 3428 50  0000 L CNN
F 2 "" H 10250 3300 50  0001 C CNN
F 3 "" H 10250 3300 50  0001 C CNN
	1    10250 3300
	0    1    1    0   
$EndComp
Text Label 10250 4200 2    50   ~ 0
A14
Text Label 10250 4100 2    50   ~ 0
A15
Text Label 10250 4300 2    50   ~ 0
F7
Text Label 10250 4400 2    50   ~ 0
F6
Text Label 10250 4500 2    50   ~ 0
A13
Text Label 10250 4600 2    50   ~ 0
A12
Text Label 10250 4700 2    50   ~ 0
A11
Text Label 10250 4800 2    50   ~ 0
A10
Text Label 10250 4900 2    50   ~ 0
A9
Text Label 10250 5000 2    50   ~ 0
A8
Text Label 9000 4700 2    50   ~ 0
D8
$Comp
L power:GND #PWR0120
U 1 1 5C3574A4
P 9000 5100
F 0 "#PWR0120" H 9000 4850 50  0001 C CNN
F 1 "GND" H 9005 4927 50  0000 C CNN
F 2 "" H 9000 5100 50  0001 C CNN
F 3 "" H 9000 5100 50  0001 C CNN
	1    9000 5100
	1    0    0    -1  
$EndComp
$Comp
L Device:R R104
U 1 1 5C3577BD
P 1600 3250
F 0 "R104" V 1500 3150 50  0000 C CNN
F 1 "100K" V 1600 3250 50  0000 C CNN
F 2 "Resistors_SMD:R_0805_HandSoldering" V 1530 3250 50  0001 C CNN
F 3 "~" H 1600 3250 50  0001 C CNN
	1    1600 3250
	0    1    1    0   
$EndComp
Wire Wire Line
	2200 3250 1750 3250
Wire Wire Line
	1450 3250 1050 3250
$Comp
L power:+3.3V #PWR0119
U 1 1 5C369953
P 9000 4800
F 0 "#PWR0119" H 9000 4650 50  0001 C CNN
F 1 "+3.3V" V 9015 4928 50  0000 L CNN
F 2 "" H 9000 4800 50  0001 C CNN
F 3 "" H 9000 4800 50  0001 C CNN
	1    9000 4800
	0    1    1    0   
$EndComp
Wire Wire Line
	8650 3100 9000 3100
Wire Wire Line
	9000 3200 8650 3200
Wire Wire Line
	9000 3300 8650 3300
Wire Wire Line
	9000 3400 8650 3400
Wire Wire Line
	9000 3500 8650 3500
Wire Wire Line
	9000 3600 8650 3600
Wire Wire Line
	9000 3700 8650 3700
Wire Wire Line
	9000 3800 8650 3800
Wire Wire Line
	9000 3900 8650 3900
Wire Wire Line
	9000 4000 8650 4000
Wire Wire Line
	9000 4100 8650 4100
Wire Wire Line
	9000 4200 8650 4200
Wire Wire Line
	9000 4300 8650 4300
Wire Wire Line
	9000 4400 8650 4400
Wire Wire Line
	9000 4500 8650 4500
Wire Wire Line
	8650 4600 9000 4600
Wire Wire Line
	9000 4700 8650 4700
Wire Wire Line
	9000 4800 8650 4800
Wire Wire Line
	9000 4900 8650 4900
Wire Wire Line
	9000 5000 8650 5000
Wire Wire Line
	10250 3100 9800 3100
Wire Wire Line
	9800 3200 10250 3200
Wire Wire Line
	9800 3300 10250 3300
Wire Wire Line
	9800 3400 10250 3400
Wire Wire Line
	9800 3500 10250 3500
Wire Wire Line
	9800 3600 10250 3600
Wire Wire Line
	9800 3700 10250 3700
Wire Wire Line
	9800 3800 10250 3800
Wire Wire Line
	9800 3900 10250 3900
Wire Wire Line
	9800 4000 10250 4000
Wire Wire Line
	9800 4100 10250 4100
Wire Wire Line
	9800 4200 10250 4200
Wire Wire Line
	9800 4300 10250 4300
Wire Wire Line
	9800 4400 10250 4400
Wire Wire Line
	9800 4500 10250 4500
Wire Wire Line
	9800 4600 10250 4600
Wire Wire Line
	9800 4700 10250 4700
Wire Wire Line
	9800 4800 10250 4800
Wire Wire Line
	9800 4900 10250 4900
Wire Wire Line
	9800 5000 10250 5000
Wire Notes Line
	550  600  7000 600 
Wire Notes Line
	7000 600  7000 5500
Wire Notes Line
	7000 5500 550  5500
Wire Notes Line
	550  5500 550  600 
Wire Notes Line
	3300 5600 3300 7700
Wire Notes Line
	3300 7700 550  7700
Wire Notes Line
	550  7700 550  5600
Wire Notes Line
	550  5600 3300 5600
Wire Notes Line
	3400 5600 5150 5600
Wire Notes Line
	5150 5600 5150 7700
Wire Notes Line
	5150 7700 3400 7700
Wire Notes Line
	3400 7700 3400 5600
Wire Notes Line
	5250 5600 6900 5600
Wire Notes Line
	6900 5600 6900 7700
Wire Notes Line
	6900 7700 5250 7700
Wire Notes Line
	5250 7700 5250 5600
Wire Notes Line
	7100 600  11150 600 
Wire Notes Line
	11150 600  11150 5500
Wire Notes Line
	11150 5500 7100 5500
Wire Notes Line
	7100 5500 7100 600 
Text Notes 650  850  0    118  ~ 24
STM32F373CxT6
Text Notes 7250 850  0    118  ~ 24
Connectors
Text Notes 600  5850 0    118  ~ 24
PSU
Text Notes 3450 5850 0    118  ~ 24
LEDs
Text Notes 5300 5850 0    118  ~ 24
Reset
$Comp
L Connector_Generic:Conn_02x03_Odd_Even J105
U 1 1 5C5276A9
P 10150 2050
F 0 "J105" H 10200 2367 50  0000 C CNN
F 1 "Boot Mode" H 10200 2276 50  0000 C CNN
F 2 "Pin_Headers:Pin_Header_Straight_2x03_Pitch2.54mm" H 10150 2050 50  0001 C CNN
F 3 "~" H 10150 2050 50  0001 C CNN
	1    10150 2050
	1    0    0    -1  
$EndComp
Wire Wire Line
	9000 4900 9000 5000
Connection ~ 9000 5000
Wire Wire Line
	9000 5000 9000 5100
Wire Wire Line
	5600 3600 5600 4500
Wire Wire Line
	5500 4500 5600 4500
Wire Wire Line
	5500 4300 5700 4300
Wire Wire Line
	5700 4300 5700 4200
$EndSCHEMATC
